{"tracks": {"href": "https://api.spotify.com/v1/search?query=ram&type=track&offset=0&limit=5", "items": [{"album": {"album_type": "single", "artists": [{"external_urls": {"spotify": "https://open.spotify.com/artist/672ogXHsMCSQv7QPvbmviJ"}, "href": "https://api.spotify.com/v1/artists/672ogXHsMCSQv7QPvbmviJ", "id": "672ogXHsMCSQv7QPvbmviJ", "name": "Little V.", "type": "artist", "uri": "spotify:artist:672ogXHsMCSQv7QPvbmviJ"}], "available_markets": ["AR", "AU", "AT", "BE", "BO", "BR", "BG", "CA", "CL", "CO", "CR", "CY", "CZ", "DK", "DO", "DE", "EC", "EE", "SV", "FI", "FR", "GR", "GT", "HN", "HK", "HU", "IS", "IE", "IT", "LV", "LT", "LU", "MY", "MT", "MX", "NL", "NZ", "NI", "NO", "PA", "PY", "PE", "PH", "PL", "PT", "SG", "SK", "ES", "SE", "CH", "TW", "TR", "UY", "US", "GB", "AD", "LI", "MC", "ID", "JP", "TH", "VN", "RO", "IL", "ZA", "SA", "AE", "BH", "QA", "OM", "KW", "EG", "MA", "DZ", "TN", "LB", "JO", "PS", "IN", "BY", "KZ", "MD", "UA", "AL", "BA", "HR", "ME", "MK", "RS", "SI", "KR", "BD", "PK", "LK", "GH", "KE", "NG", "TZ", "UG", "AG", "AM", "BS", "BB", "BZ", "BT", "BW", "BF", "CV", "CW", "DM", "FJ", "GM", "GE", "GD", "GW", "GY", "HT", "JM", "KI", "LS", "LR", "MW", "MV", "ML", "MH", "FM", "NA", "NR", "NE", "PW", "PG", "WS", "SM", "ST", "SN", "SC", "SL", "SB", "KN", "LC", "VC", "SR", "TL", "TO", "TT", "TV", "VU", "AZ", "BN", "BI", "KH", "CM", "TD", "KM", "GQ", "SZ", "GA", "GN", "KG", "LA", "MO", "MR", "MN", "NP", "RW", "TG", "UZ", "ZW", "BJ", "MG", "MU", "MZ", "AO", "CI", "DJ", "ZM", "CD", "CG", "IQ", "LY", "TJ", "VE", "ET", "XK"], "external_urls": {"spotify": "https://open.spotify.com/album/5PXwiQepdR4NHeeMSl05QR"}, "href": "https://api.spotify.com/v1/albums/5PXwiQepdR4NHeeMSl05QR", "id": "5PXwiQepdR4NHeeMSl05QR", "images": [{"height": 640, "url": "https://i.scdn.co/image/ab67616d0000b273b8d2fe68b734e304dc52de31", "width": 640}, {"height": 300, "url": "https://i.scdn.co/image/ab67616d00001e02b8d2fe68b734e304dc52de31", "width": 300}, {"height": 64, "url": "https://i.scdn.co/image/ab67616d00004851b8d2fe68b734e304dc52de31", "width": 64}], "name": "Ram Ranch", "release_date": "2021-11-19", "release_date_precision": "day", "total_tracks": 1, "type": "album", "uri": "spotify:album:5PXwiQepdR4NHeeMSl05QR"}, "artists": [{"external_urls": {"spotify": "https://open.spotify.com/artist/672ogXHsMCSQv7QPvbmviJ"}, "href": "https://api.spotify.com/v1/artists/672ogXHsMCSQv7QPvbmviJ", "id": "672ogXHsMCSQv7QPvbmviJ", "name": "Little V.", "type": "artist", "uri": "spotify:artist:672ogXHsMCSQv7QPvbmviJ"}], "available_markets": ["AR", "AU", "AT", "BE", "BO", "BR", "BG", "CA", "CL", "CO", "CR", "CY", "CZ", "DK", "DO", "DE", "EC", "EE", "SV", "FI", "FR", "GR", "GT", "HN", "HK", "HU", "IS", "IE", "IT", "LV", "LT", "LU", "MY", "MT", "MX", "NL", "NZ", "NI", "NO", "PA", "PY", "PE", "PH", "PL", "PT", "SG", "SK", "ES", "SE", "CH", "TW", "TR", "UY", "US", "GB", "AD", "LI", "MC", "ID", "JP", "TH", "VN", "RO", "IL", "ZA", "SA", "AE", "BH", "QA", "OM", "KW", "EG", "MA", "DZ", "TN", "LB", "JO", "PS", "IN", "BY", "KZ", "MD", "UA", "AL", "BA", "HR", "ME", "MK", "RS", "SI", "KR", "BD", "PK", "LK", "GH", "KE", "NG", "TZ", "UG", "AG", "AM", "BS", "BB", "BZ", "BT", "BW", "BF", "CV", "CW", "DM", "FJ", "GM", "GE", "GD", "GW", "GY", "HT", "JM", "KI", "LS", "LR", "MW", "MV", "ML", "MH", "FM", "NA", "NR", "NE", "PW", "PG", "WS", "SM", "ST", "SN", "SC", "SL", "SB", "KN", "LC", "VC", "SR", "TL", "TO", "TT", "TV", "VU", "AZ", "BN", "BI", "KH", "CM", "TD", "KM", "GQ", "SZ", "GA", "GN", "KG", "LA", "MO", "MR", "MN", "NP", "RW", "TG", "UZ", "ZW", "BJ", "MG", "MU", "MZ", "AO", "CI", "DJ", "ZM", "CD", "CG", "IQ", "LY", "TJ", "VE", "ET", "XK"], "disc_number": 1, "duration_ms": 205411, "explicit": true, "external_ids": {"isrc": "QZNWZ2175732"}, "external_urls": {"spotify": "https://open.spotify.com/track/7tMdq6IXraGBq2peYKMI1n"}, "href": "https://api.spotify.com/v1/tracks/7tMdq6IXraGBq2peYKMI1n", "id": "7tMdq6IXraGBq2peYKMI1n", "is_local": false, "name": "Ram Ranch", "popularity": 35, "preview_url": "https://p.scdn.co/mp3-preview/5c0c680f1136eb622fa319072ad3384ce12a5216?cid=ae2ac5bb80f346d7a01034ab1e407394", "track_number": 1, "type": "track", "uri": "spotify:track:7tMdq6IXraGBq2peYKMI1n"}, {"album": {"album_type": "single", "artists": [{"external_urls": {"spotify": "https://open.spotify.com/artist/6C1ohJrd5VydigQtaGy5Wa"}, "href": "https://api.spotify.com/v1/artists/6C1ohJrd5VydigQtaGy5Wa", "id": "6C1ohJrd5VydigQtaGy5Wa", "name": "Joyner Lucas", "type": "artist", "uri": "spotify:artist:6C1ohJrd5VydigQtaGy5Wa"}, {"external_urls": {"spotify": "https://open.spotify.com/artist/5f7VJjfbwm532GiveGC0ZK"}, "href": "https://api.spotify.com/v1/artists/5f7VJjfbwm532GiveGC0ZK", "id": "5f7VJjfbwm532GiveGC0ZK", "name": "Lil Baby", "type": "artist", "uri": "spotify:artist:5f7VJjfbwm532GiveGC0ZK"}], "available_markets": ["AR", "AU", "AT", "BE", "BO", "BR", "BG", "CA", "CL", "CO", "CR", "CY", "CZ", "DK", "DO", "DE", "EC", "EE", "SV", "FI", "FR", "GR", "GT", "HN", "HK", "HU", "IS", "IE", "IT", "LV", "LT", "LU", "MY", "MT", "MX", "NL", "NZ", "NI", "NO", "PA", "PY", "PE", "PH", "PL", "PT", "SG", "SK", "ES", "SE", "CH", "TW", "TR", "UY", "US", "GB", "AD", "LI", "MC", "ID", "JP", "TH", "VN", "RO", "IL", "ZA", "SA", "AE", "BH", "QA", "OM", "KW", "EG", "MA", "DZ", "TN", "LB", "JO", "PS", "IN", "BY", "KZ", "MD", "UA", "AL", "BA", "HR", "ME", "MK", "RS", "SI", "KR", "BD", "PK", "LK", "GH", "KE", "NG", "TZ", "UG", "AG", "AM", "BS", "BB", "BZ", "BT", "BW", "BF", "CV", "CW", "DM", "FJ", "GM", "GE", "GD", "GW", "GY", "HT", "JM", "KI", "LS", "LR", "MW", "MV", "ML", "MH", "FM", "NA", "NR", "NE", "PW", "PG", "WS", "SM", "ST", "SN", "SC", "SL", "SB", "KN", "LC", "VC", "SR", "TL", "TO", "TT", "TV", "VU", "AZ", "BN", "BI", "KH", "CM", "TD", "KM", "GQ", "SZ", "GA", "GN", "KG", "LA", "MO", "MR", "MN", "NP", "RW", "TG", "UZ", "ZW", "BJ", "MG", "MU", "MZ", "AO", "CI", "DJ", "ZM", "CD", "CG", "IQ", "LY", "TJ", "VE", "ET", "XK"], "external_urls": {"spotify": "https://open.spotify.com/album/48ahZJLcagb8VTgRAuv6WQ"}, "href": "https://api.spotify.com/v1/albums/48ahZJLcagb8VTgRAuv6WQ", "id": "48ahZJLcagb8VTgRAuv6WQ", "images": [{"height": 640, "url": "https://i.scdn.co/image/ab67616d0000b2734fd8e64469ff9dd01faf50fe", "width": 640}, {"height": 300, "url": "https://i.scdn.co/image/ab67616d00001e024fd8e64469ff9dd01faf50fe", "width": 300}, {"height": 64, "url": "https://i.scdn.co/image/ab67616d000048514fd8e64469ff9dd01faf50fe", "width": 64}], "name": "Ramen & OJ", "release_date": "2021-04-30", "release_date_precision": "day", "total_tracks": 1, "type": "album", "uri": "spotify:album:48ahZJLcagb8VTgRAuv6WQ"}, "artists": [{"external_urls": {"spotify": "https://open.spotify.com/artist/6C1ohJrd5VydigQtaGy5Wa"}, "href": "https://api.spotify.com/v1/artists/6C1ohJrd5VydigQtaGy5Wa", "id": "6C1ohJrd5VydigQtaGy5Wa", "name": "Joyner Lucas", "type": "artist", "uri": "spotify:artist:6C1ohJrd5VydigQtaGy5Wa"}, {"external_urls": {"spotify": "https://open.spotify.com/artist/5f7VJjfbwm532GiveGC0ZK"}, "href": "https://api.spotify.com/v1/artists/5f7VJjfbwm532GiveGC0ZK", "id": "5f7VJjfbwm532GiveGC0ZK", "name": "Lil Baby", "type": "artist", "uri": "spotify:artist:5f7VJjfbwm532GiveGC0ZK"}], "available_markets": ["AR", "AU", "AT", "BE", "BO", "BR", "BG", "CA", "CL", "CO", "CR", "CY", "CZ", "DK", "DO", "DE", "EC", "EE", "SV", "FI", "FR", "GR", "GT", "HN", "HK", "HU", "IS", "IE", "IT", "LV", "LT", "LU", "MY", "MT", "MX", "NL", "NZ", "NI", "NO", "PA", "PY", "PE", "PH", "PL", "PT", "SG", "SK", "ES", "SE", "CH", "TW", "TR", "UY", "US", "GB", "AD", "LI", "MC", "ID", "JP", "TH", "VN", "RO", "IL", "ZA", "SA", "AE", "BH", "QA", "OM", "KW", "EG", "MA", "DZ", "TN", "LB", "JO", "PS", "IN", "BY", "KZ", "MD", "UA", "AL", "BA", "HR", "ME", "MK", "RS", "SI", "KR", "BD", "PK", "LK", "GH", "KE", "NG", "TZ", "UG", "AG", "AM", "BS", "BB", "BZ", "BT", "BW", "BF", "CV", "CW", "DM", "FJ", "GM", "GE", "GD", "GW", "GY", "HT", "JM", "KI", "LS", "LR", "MW", "MV", "ML", "MH", "FM", "NA", "NR", "NE", "PW", "PG", "WS", "SM", "ST", "SN", "SC", "SL", "SB", "KN", "LC", "VC", "SR", "TL", "TO", "TT", "TV", "VU", "AZ", "BN", "BI", "KH", "CM", "TD", "KM", "GQ", "SZ", "GA", "GN", "KG", "LA", "MO", "MR", "MN", "NP", "RW", "TG", "UZ", "ZW", "BJ", "MG", "MU", "MZ", "AO", "CI", "DJ", "ZM", "CD", "CG", "IQ", "LY", "TJ", "VE", "ET", "XK"], "disc_number": 1, "duration_ms": 218447, "explicit": true, "external_ids": {"isrc": "QZES92173120"}, "external_urls": {"spotify": "https://open.spotify.com/track/4TIqzdAssasqx3DAe6cG9J"}, "href": "https://api.spotify.com/v1/tracks/4TIqzdAssasqx3DAe6cG9J", "id": "4TIqzdAssasqx3DAe6cG9J", "is_local": false, "name": "Ramen & OJ", "popularity": 73, "preview_url": "https://p.scdn.co/mp3-preview/0af1c66665c4fdfd11d8252f9135ea8c12d2a1a9?cid=ae2ac5bb80f346d7a01034ab1e407394", "track_number": 1, "type": "track", "uri": "spotify:track:4TIqzdAssasqx3DAe6cG9J"}, {"album": {"album_type": "album", "artists": [{"external_urls": {"spotify": "https://open.spotify.com/artist/6wWVKhxIU2cEi0K81v7HvP"}, "href": "https://api.spotify.com/v1/artists/6wWVKhxIU2cEi0K81v7HvP", "id": "6wWVKhxIU2cEi0K81v7HvP", "name": "Rammstein", "type": "artist", "uri": "spotify:artist:6wWVKhxIU2cEi0K81v7HvP"}], "available_markets": ["CA", "MX", "US"], "external_urls": {"spotify": "https://open.spotify.com/album/7ikuEzL6xeAgu6yT6YVLy7"}, "href": "https://api.spotify.com/v1/albums/7ikuEzL6xeAgu6yT6YVLy7", "id": "7ikuEzL6xeAgu6yT6YVLy7", "images": [{"height": 640, "url": "https://i.scdn.co/image/ab67616d0000b27325d8b7c6feee0c8d6593d606", "width": 640}, {"height": 300, "url": "https://i.scdn.co/image/ab67616d00001e0225d8b7c6feee0c8d6593d606", "width": 300}, {"height": 64, "url": "https://i.scdn.co/image/ab67616d0000485125d8b7c6feee0c8d6593d606", "width": 64}], "name": "Mutter", "release_date": "2001-04-02", "release_date_precision": "day", "total_tracks": 11, "type": "album", "uri": "spotify:album:7ikuEzL6xeAgu6yT6YVLy7"}, "artists": [{"external_urls": {"spotify": "https://open.spotify.com/artist/6wWVKhxIU2cEi0K81v7HvP"}, "href": "https://api.spotify.com/v1/artists/6wWVKhxIU2cEi0K81v7HvP", "id": "6wWVKhxIU2cEi0K81v7HvP", "name": "Rammstein", "type": "artist", "uri": "spotify:artist:6wWVKhxIU2cEi0K81v7HvP"}], "available_markets": ["CA", "MX", "US"], "disc_number": 1, "duration_ms": 272440, "explicit": false, "external_ids": {"isrc": "DEN120003766"}, "external_urls": {"spotify": "https://open.spotify.com/track/4w3R0GZ2rScJMKlgPJzHRq"}, "href": "https://api.spotify.com/v1/tracks/4w3R0GZ2rScJMKlgPJzHRq", "id": "4w3R0GZ2rScJMKlgPJzHRq", "is_local": false, "name": "Sonne", "popularity": 74, "preview_url": null, "track_number": 3, "type": "track", "uri": "spotify:track:4w3R0GZ2rScJMKlgPJzHRq"}, {"album": {"album_type": "album", "artists": [{"external_urls": {"spotify": "https://open.spotify.com/artist/5v2WhpA59TJSdPh7LCx1lN"}, "href": "https://api.spotify.com/v1/artists/5v2WhpA59TJSdPh7LCx1lN", "id": "5v2WhpA59TJSdPh7LCx1lN", "name": "BONES", "type": "artist", "uri": "spotify:artist:5v2WhpA59TJSdPh7LCx1lN"}], "available_markets": ["AR", "AU", "AT", "BE", "BO", "BR", "BG", "CA", "CL", "CO", "CR", "CY", "CZ", "DK", "DO", "DE", "EC", "EE", "SV", "FI", "FR", "GR", "GT", "HN", "HK", "HU", "IS", "IE", "IT", "LV", "LT", "LU", "MY", "MT", "MX", "NL", "NZ", "NI", "NO", "PA", "PY", "PE", "PH", "PL", "PT", "SG", "SK", "ES", "SE", "CH", "TW", "TR", "UY", "US", "GB", "AD", "LI", "MC", "ID", "JP", "TH", "VN", "RO", "IL", "ZA", "SA", "AE", "BH", "QA", "OM", "KW", "EG", "MA", "DZ", "TN", "LB", "JO", "PS", "IN", "BY", "KZ", "MD", "UA", "AL", "BA", "HR", "ME", "MK", "RS", "SI", "KR", "BD", "PK", "LK", "GH", "KE", "NG", "TZ", "UG", "AG", "AM", "BS", "BB", "BZ", "BT", "BW", "BF", "CV", "CW", "DM", "FJ", "GM", "GE", "GD", "GW", "GY", "HT", "JM", "KI", "LS", "LR", "MW", "MV", "ML", "MH", "FM", "NA", "NR", "NE", "PW", "PG", "WS", "SM", "ST", "SN", "SC", "SL", "SB", "KN", "LC", "VC", "SR", "TL", "TO", "TT", "TV", "VU", "AZ", "BN", "BI", "KH", "CM", "TD", "KM", "GQ", "SZ", "GA", "GN", "KG", "LA", "MO", "MR", "MN", "NP", "RW", "TG", "UZ", "ZW", "BJ", "MG", "MU", "MZ", "AO", "CI", "DJ", "ZM", "CD", "CG", "IQ", "LY", "TJ", "VE", "ET", "XK"], "external_urls": {"spotify": "https://open.spotify.com/album/5GPVfyxLxHMdR5qyS53bBb"}, "href": "https://api.spotify.com/v1/albums/5GPVfyxLxHMdR5qyS53bBb", "id": "5GPVfyxLxHMdR5qyS53bBb", "images": [{"height": 640, "url": "https://i.scdn.co/image/ab67616d0000b273141543af3b22ac0c71878fd2", "width": 640}, {"height": 300, "url": "https://i.scdn.co/image/ab67616d00001e02141543af3b22ac0c71878fd2", "width": 300}, {"height": 64, "url": "https://i.scdn.co/image/ab67616d00004851141543af3b22ac0c71878fd2", "width": 64}], "name": "TeenWitch", "release_date": "2014-02-25", "release_date_precision": "day", "total_tracks": 17, "type": "album", "uri": "spotify:album:5GPVfyxLxHMdR5qyS53bBb"}, "artists": [{"external_urls": {"spotify": "https://open.spotify.com/artist/5v2WhpA59TJSdPh7LCx1lN"}, "href": "https://api.spotify.com/v1/artists/5v2WhpA59TJSdPh7LCx1lN", "id": "5v2WhpA59TJSdPh7LCx1lN", "name": "BONES", "type": "artist", "uri": "spotify:artist:5v2WhpA59TJSdPh7LCx1lN"}], "available_markets": ["AR", "AU", "AT", "BE", "BO", "BR", "BG", "CA", "CL", "CO", "CR", "CY", "CZ", "DK", "DO", "DE", "EC", "EE", "SV", "FI", "FR", "GR", "GT", "HN", "HK", "HU", "IS", "IE", "IT", "LV", "LT", "LU", "MY", "MT", "MX", "NL", "NZ", "NI", "NO", "PA", "PY", "PE", "PH", "PL", "PT", "SG", "SK", "ES", "SE", "CH", "TW", "TR", "UY", "US", "GB", "AD", "LI", "MC", "ID", "JP", "TH", "VN", "RO", "IL", "ZA", "SA", "AE", "BH", "QA", "OM", "KW", "EG", "MA", "DZ", "TN", "LB", "JO", "PS", "IN", "BY", "KZ", "MD", "UA", "AL", "BA", "HR", "ME", "MK", "RS", "SI", "KR", "BD", "PK", "LK", "GH", "KE", "NG", "TZ", "UG", "AG", "AM", "BS", "BB", "BZ", "BT", "BW", "BF", "CV", "CW", "DM", "FJ", "GM", "GE", "GD", "GW", "GY", "HT", "JM", "KI", "LS", "LR", "MW", "MV", "ML", "MH", "FM", "NA", "NR", "NE", "PW", "PG", "WS", "SM", "ST", "SN", "SC", "SL", "SB", "KN", "LC", "VC", "SR", "TL", "TO", "TT", "TV", "VU", "AZ", "BN", "BI", "KH", "CM", "TD", "KM", "GQ", "SZ", "GA", "GN", "KG", "LA", "MO", "MR", "MN", "NP", "RW", "TG", "UZ", "ZW", "BJ", "MG", "MU", "MZ", "AO", "CI", "DJ", "ZM", "CD", "CG", "IQ", "LY", "TJ", "VE", "ET", "XK"], "disc_number": 1, "duration_ms": 98716, "explicit": true, "external_ids": {"isrc": "CA5KR1567793"}, "external_urls": {"spotify": "https://open.spotify.com/track/3IgjZRkRFAWflrCxRimOoL"}, "href": "https://api.spotify.com/v1/tracks/3IgjZRkRFAWflrCxRimOoL", "id": "3IgjZRkRFAWflrCxRimOoL", "is_local": false, "name": "RampartRange", "popularity": 72, "preview_url": "https://p.scdn.co/mp3-preview/2b9a38e964244aa2da7fdbc7b5a491777193c1da?cid=ae2ac5bb80f346d7a01034ab1e407394", "track_number": 6, "type": "track", "uri": "spotify:track:3IgjZRkRFAWflrCxRimOoL"}, {"album": {"album_type": "album", "artists": [{"external_urls": {"spotify": "https://open.spotify.com/artist/36QJpDe2go2KgaRleHCDTp"}, "href": "https://api.spotify.com/v1/artists/36QJpDe2go2KgaRleHCDTp", "id": "36QJpDe2go2KgaRleHCDTp", "name": "Led Zeppelin", "type": "artist", "uri": "spotify:artist:36QJpDe2go2KgaRleHCDTp"}], "available_markets": ["AR", "AU", "AT", "BE", "BO", "BR", "BG", "CA", "CL", "CO", "CR", "CY", "CZ", "DK", "DO", "DE", "EC", "EE", "SV", "FI", "FR", "GR", "GT", "HN", "HK", "HU", "IS", "IE", "IT", "LV", "LT", "LU", "MY", "MT", "MX", "NL", "NZ", "NI", "NO", "PA", "PY", "PE", "PH", "PL", "PT", "SG", "SK", "ES", "SE", "CH", "TW", "TR", "UY", "US", "GB", "AD", "LI", "MC", "ID", "JP", "TH", "VN", "RO", "IL", "ZA", "SA", "AE", "BH", "QA", "OM", "KW", "EG", "MA", "DZ", "TN", "LB", "JO", "PS", "IN", "BY", "KZ", "MD", "UA", "AL", "BA", "HR", "ME", "MK", "RS", "SI", "KR", "BD", "PK", "LK", "GH", "KE", "NG", "TZ", "UG", "AG", "AM", "BS", "BB", "BZ", "BT", "BW", "BF", "CV", "CW", "DM", "FJ", "GM", "GE", "GD", "GW", "GY", "HT", "JM", "KI", "LS", "LR", "MW", "MV", "ML", "MH", "FM", "NA", "NR", "NE", "PW", "PG", "WS", "SM", "ST", "SN", "SC", "SL", "SB", "KN", "LC", "VC", "SR", "TL", "TO", "TT", "TV", "VU", "AZ", "BN", "BI", "KH", "CM", "TD", "KM", "GQ", "SZ", "GA", "GN", "KG", "LA", "MO", "MR", "MN", "NP", "RW", "TG", "UZ", "ZW", "BJ", "MG", "MU", "MZ", "AO", "CI", "DJ", "ZM", "CD", "CG", "IQ", "LY", "TJ", "VE", "ET", "XK"], "external_urls": {"spotify": "https://open.spotify.com/album/70lQYZtypdCALtFVlQAcvx"}, "href": "https://api.spotify.com/v1/albums/70lQYZtypdCALtFVlQAcvx", "id": "70lQYZtypdCALtFVlQAcvx", "images": [{"height": 640, "url": "https://i.scdn.co/image/ab67616d0000b273fc4f17340773c6c3579fea0d", "width": 640}, {"height": 300, "url": "https://i.scdn.co/image/ab67616d00001e02fc4f17340773c6c3579fea0d", "width": 300}, {"height": 64, "url": "https://i.scdn.co/image/ab67616d00004851fc4f17340773c6c3579fea0d", "width": 64}], "name": "Led Zeppelin II (1994 Remaster)", "release_date": "1969-10-22", "release_date_precision": "day", "total_tracks": 9, "type": "album", "uri": "spotify:album:70lQYZtypdCALtFVlQAcvx"}, "artists": [{"external_urls": {"spotify": "https://open.spotify.com/artist/36QJpDe2go2KgaRleHCDTp"}, "href": "https://api.spotify.com/v1/artists/36QJpDe2go2KgaRleHCDTp", "id": "36QJpDe2go2KgaRleHCDTp", "name": "Led Zeppelin", "type": "artist", "uri": "spotify:artist:36QJpDe2go2KgaRleHCDTp"}], "available_markets": ["AR", "AU", "AT", "BE", "BO", "BR", "BG", "CA", "CL", "CO", "CR", "CY", "CZ", "DK", "DO", "DE", "EC", "EE", "SV", "FI", "FR", "GR", "GT", "HN", "HK", "HU", "IS", "IE", "IT", "LV", "LT", "LU", "MY", "MT", "MX", "NL", "NZ", "NI", "NO", "PA", "PY", "PE", "PH", "PL", "PT", "SG", "SK", "ES", "SE", "CH", "TW", "TR", "UY", "US", "GB", "AD", "LI", "MC", "ID", "JP", "TH", "VN", "RO", "IL", "ZA", "SA", "AE", "BH", "QA", "OM", "KW", "EG", "MA", "DZ", "TN", "LB", "JO", "PS", "IN", "BY", "KZ", "MD", "UA", "AL", "BA", "HR", "ME", "MK", "RS", "SI", "KR", "BD", "PK", "LK", "GH", "KE", "NG", "TZ", "UG", "AG", "AM", "BS", "BB", "BZ", "BT", "BW", "BF", "CV", "CW", "DM", "FJ", "GM", "GE", "GD", "GW", "GY", "HT", "JM", "KI", "LS", "LR", "MW", "MV", "ML", "MH", "FM", "NA", "NR", "NE", "PW", "PG", "WS", "SM", "ST", "SN", "SC", "SL", "SB", "KN", "LC", "VC", "SR", "TL", "TO", "TT", "TV", "VU", "AZ", "BN", "BI", "KH", "CM", "TD", "KM", "GQ", "SZ", "GA", "GN", "KG", "LA", "MO", "MR", "MN", "NP", "RW", "TG", "UZ", "ZW", "BJ", "MG", "MU", "MZ", "AO", "CI", "DJ", "ZM", "CD", "CG", "IQ", "LY", "TJ", "VE", "ET", "XK"], "disc_number": 1, "duration_ms": 263333, "explicit": false, "external_ids": {"isrc": "USAT29900477"}, "external_urls": {"spotify": "https://open.spotify.com/track/3MODES4TNtygekLl146Dxd"}, "href": "https://api.spotify.com/v1/tracks/3MODES4TNtygekLl146Dxd", "id": "3MODES4TNtygekLl146Dxd", "is_local": false, "name": "Ramble On - 1990 Remaster", "popularity": 72, "preview_url": "https://p.scdn.co/mp3-preview/e734d4e4f125ff5fbe7d69faa7d505dc744fb7bb?cid=ae2ac5bb80f346d7a01034ab1e407394", "track_number": 7, "type": "track", "uri": "spotify:track:3MODES4TNtygekLl146Dxd"}], "limit": 5, "next": "https://api.spotify.com/v1/search?query=ram&type=track&offset=5&limit=5", "offset": 0, "previous": null, "total": 123}}